module gitlab.com/yawning/obfs4.git

require (
	git.torproject.org/pluggable-transports/goptlib.git v1.0.0
	github.com/agl/ed25519 v0.0.0-20170116200512-5312a6153412
	github.com/dchest/siphash v1.2.1
	github.com/lucas-clemente/quic-go v0.12.1
	gitlab.com/yawning/utls.git v0.0.11-1
	golang.org/x/crypto v0.0.0-20190325154230-a5d413f7728c
	golang.org/x/net v0.0.0-20190328230028-74de082e2cca
)
